[
    {
        "model": "samples_manager.irradiation",
        "pk": 1,
        "fields": {
            "sample": 1,
            "dosimeter": 1,
            "previous_irradiation": null,
            "fluence_factor": null,
            "date_in": "2020-12-12T14:00:00+00:00",
            "date_out": "2020-12-12T19:00:00+00:00",
            "date_first_sec": "2020-12-12T14:00:30+00:00",
            "date_last_sec": "2020-12-12T18:59:30+00:00",
            "table_position": "Center",
            "irrad_table": "IRRAD3",
            "sec": null,
            "estimated_fluence": null,
            "measured_fluence": null,
            "fluence_error": null,
            "status": "Registered",
            "dos_position": 1,
            "comments": null,
            "created_at": "2020-12-12T14:00:00+00:00",
            "updated_at": "2020-12-12T16:00:00+00:00",
            "created_by": 1,
            "updated_by": 1
        }
    },
    {
        "model": "samples_manager.irradiation",
        "pk": 2,
        "fields": {
            "sample": 2,
            "dosimeter": 2,
            "previous_irradiation": null,
            "fluence_factor": null,
            "date_in": null,
            "date_out": null,
            "date_first_sec": null,
            "date_last_sec": null,
            "table_position": "Center",
            "irrad_table": "IRRAD3",
            "sec": null,
            "estimated_fluence": null,
            "measured_fluence": null,
            "fluence_error": null,
            "status": "Registered",
            "dos_position": 1,
            "comments": null,
            "created_at": "2020-12-12T18:00:00+00:00",
            "updated_at": "2020-12-12T20:00:00+00:00",
            "created_by": 1,
            "updated_by": 1
        }
    },
    {
        "model": "samples_manager.irradiation",
        "pk": 3,
        "fields": {
            "sample": 1,
            "dosimeter": 2,
            "previous_irradiation": null,
            "fluence_factor": null,
            "date_in": "2020-12-12T14:00:00+00:00",
            "date_out": "2020-12-12T19:00:00+00:00",
            "date_first_sec": "2020-12-12T14:00:30+00:00",
            "date_last_sec": "2020-12-12T18:59:30+00:00",
            "table_position": "Center",
            "irrad_table": "IRRAD3",
            "sec": null,
            "estimated_fluence": null,
            "measured_fluence": null,
            "fluence_error": null,
            "status": "Registered",
            "dos_position": 1,
            "comments": null,
            "created_at": "2020-12-12T14:00:00+00:00",
            "updated_at": "2020-12-12T16:00:00+00:00",
            "created_by": 1,
            "updated_by": 1
        }
    },
    {
        "model": "samples_manager.irradiation",
        "pk": 4,
        "fields": {
            "sample": null,
            "dosimeter": 1,
            "previous_irradiation": null,
            "fluence_factor": null,
            "date_in": "2020-12-12T14:00:00+00:00",
            "date_out": "2020-12-12T19:00:00+00:00",
            "date_first_sec": "2020-12-12T14:00:30+00:00",
            "date_last_sec": "2020-12-12T18:59:30+00:00",
            "table_position": "Center",
            "irrad_table": "IRRAD3",
            "sec": null,
            "estimated_fluence": null,
            "measured_fluence": null,
            "fluence_error": null,
            "status": "Completed",
            "dos_position": 1,
            "comments": null,
            "created_at": "2020-12-12T14:00:00+00:00",
            "updated_at": "2020-12-12T16:00:00+00:00",
            "created_by": 1,
            "updated_by": 1
        }
    }
]